<?xml version="1.0" encoding="utf-8"?>
<!-- Generator: Adobe Illustrator 16.0.1, SVG Export Plug-In . SVG Version: 6.00 Build 0)  -->
<!DOCTYPE svg PUBLIC "-//W3C//DTD SVG 1.1//EN" "http://www.w3.org/Graphics/SVG/1.1/DTD/svg11.dtd">
<svg version="1.1" xmlns="http://www.w3.org/2000/svg" xmlns:xlink="http://www.w3.org/1999/xlink" x="0px" y="0px"
	 width="102.832px" height="100px" viewBox="0 0 102.832 100" enable-background="new 0 0 102.832 100" xml:space="preserve">
<g id="Warstwa_5">
</g>
<g id="article_box">
	<g id="gks_negatyw_2_">
		<path fill-rule="evenodd" clip-rule="evenodd" fill="#FFFFFF" d="M2.755,10.273l4.35-5.41c9.137,3.385,17.131,2.123,23.866-4.243
			c5.725,3.753,12.034,6.609,20.445,6.26c8.412,0.349,14.724-2.507,20.445-6.26c6.736,6.365,14.73,7.627,23.866,4.243l4.35,5.41
			c-12.392,15.724-12.763,27.628-1.11,35.714l-1.061,2.49l2.437,1.537l-1.589,1.908l3.498,3.338
			c-0.836,1.985-2.377,3.616-4.77,4.821c9.258,26.661-14.488,39.183-46.066,39.43C19.839,99.265-3.907,86.743,5.35,60.082
			c-2.393-1.206-3.934-2.836-4.77-4.821l3.497-3.338l-1.589-1.908l2.438-1.537l-1.059-2.49
			C15.517,37.901,15.147,25.997,2.755,10.273z"/>
		<path fill="#C3CED5" d="M51.416,100h-0.004c-10.308-0.081-19.37-1.425-26.938-3.992c-8.046-2.731-13.961-6.716-17.579-11.846
			c-4.57-6.479-5.291-14.498-2.144-23.841c-2.211-1.2-3.766-2.838-4.622-4.871L0,55.14l3.41-3.256l-1.653-1.985l2.557-1.612
			l-1.053-2.475l0.326-0.227c4.693-3.257,7.415-7.193,8.089-11.7c0.959-6.417-2.171-14.26-9.304-23.31L2.129,10.27l4.815-5.988
			l0.329,0.123c3.22,1.192,6.313,1.797,9.196,1.797c5.23,0,9.997-1.997,14.164-5.937L30.915,0l0.324,0.211
			c4.407,2.891,10.526,6.209,18.794,6.209c0.447,0,0.908-0.01,1.362-0.028l0.021-0.001l0.02,0.001
			c0.456,0.019,0.914,0.028,1.364,0.028c8.266,0,14.386-3.318,18.793-6.209L71.916,0l0.281,0.266
			c4.17,3.939,8.935,5.937,14.165,5.937c2.883,0,5.977-0.605,9.195-1.797l0.331-0.123l4.813,5.988l-0.241,0.306
			c-7.132,9.05-10.262,16.893-9.304,23.31c0.674,4.506,3.396,8.442,8.088,11.7l0.327,0.227l-1.053,2.475l2.559,1.612l-1.655,1.985
			l3.41,3.256l-0.13,0.31c-0.856,2.033-2.409,3.671-4.62,4.871c3.146,9.344,2.426,17.363-2.144,23.84
			c-3.621,5.131-9.535,9.116-17.581,11.847c-7.566,2.567-16.63,3.911-26.938,3.992H51.416z M1.167,55.375
			c0.847,1.806,2.29,3.205,4.402,4.27l0.383,0.192l-0.141,0.404c-3.193,9.2-2.562,17.057,1.882,23.356
			c3.497,4.957,9.25,8.821,17.095,11.484c7.362,2.499,16.571,3.86,26.628,3.939c10.057-0.079,19.266-1.44,26.627-3.94
			c7.847-2.662,13.598-6.526,17.096-11.483c4.443-6.299,5.076-14.156,1.882-23.356l-0.14-0.404l0.382-0.192
			c2.112-1.065,3.556-2.464,4.401-4.27l-3.578-3.416l1.525-1.83l-2.317-1.46l1.067-2.509c-4.723-3.373-7.473-7.452-8.172-12.129
			c-0.988-6.621,2.128-14.611,9.264-23.754l-3.887-4.834c-3.209,1.153-6.305,1.738-9.204,1.738c-5.37,0-10.265-1.999-14.554-5.94
			C67.313,4.153,61.125,7.398,52.8,7.398c-0.456,0-0.922-0.009-1.384-0.028c-0.462,0.019-0.928,0.028-1.383,0.028
			c-8.324,0-14.514-3.246-19.01-6.16C26.734,5.181,21.84,7.18,16.47,7.18c-2.899,0-5.994-0.584-9.205-1.738l-3.886,4.834
			c7.136,9.143,10.253,17.133,9.263,23.754c-0.698,4.676-3.446,8.756-8.171,12.129l1.069,2.509l-2.318,1.46l1.523,1.83L1.167,55.375
			z M33.985,51.713c0,0.818-0.146,1.334-0.441,1.544c-0.292,0.21-1.012,0.314-2.155,0.314c-1.116,0-1.825-0.104-2.129-0.313
			c-0.302-0.206-0.452-0.696-0.452-1.47v-7.088h-2.17v7.088c0,1.434,0.308,2.374,0.929,2.818c0.62,0.446,1.927,0.668,3.921,0.668
			c1.888,0,3.139-0.235,3.751-0.708c0.611-0.468,0.917-1.433,0.917-2.894v-6.973h-2.17V51.713z M47.854,44.701h-2.697l-3.808,4.27
			h-1.021v-4.27h-2.169v10.483h2.169v-4.538h1.04l4.189,4.538h2.783l-5.103-5.39L47.854,44.701z M25.169,46.369v-1.667H16.38v1.675
			h5.992v0.06l-2.276,2.559h-3.333v0.743h2.673l-3.335,3.748v1.698h9.143v-1.675h-6.393v-0.061l3.312-3.71h3.116v-0.743h-2.452
			L25.169,46.369z M86.209,45.559c-0.598-0.632-1.933-0.949-4.012-0.949c-2.337,0-3.803,0.32-4.399,0.959
			c-0.599,0.639-0.898,2.209-0.898,4.708c0,2.101,0.304,3.458,0.912,4.073c0.609,0.617,1.953,0.925,4.032,0.925
			c2.311,0,3.763-0.311,4.362-0.935c0.601-0.627,0.901-2.139,0.901-4.541C87.107,47.603,86.807,46.19,86.209,45.559z M84.498,53.053
			c-0.266,0.346-1.074,0.519-2.418,0.519c-1.409,0-2.258-0.155-2.544-0.461c-0.289-0.307-0.432-1.213-0.432-2.718
			c0-2.034,0.123-3.221,0.368-3.565c0.247-0.343,1.1-0.514,2.556-0.514c1.406,0,2.239,0.16,2.493,0.479
			c0.256,0.32,0.382,1.358,0.382,3.114C84.903,51.658,84.768,52.707,84.498,53.053z M53.97,44.61c-2.337,0-3.801,0.32-4.398,0.959
			c-0.599,0.639-0.898,2.209-0.898,4.708c0,2.101,0.303,3.458,0.913,4.073c0.608,0.617,1.952,0.925,4.032,0.925
			c2.309,0,3.761-0.311,4.362-0.935c0.602-0.627,0.901-2.139,0.901-4.541c0-2.196-0.3-3.609-0.897-4.241
			C57.386,44.926,56.049,44.61,53.97,44.61z M56.273,53.053c-0.266,0.346-1.075,0.519-2.42,0.519c-1.408,0-2.257-0.155-2.543-0.461
			c-0.289-0.307-0.433-1.213-0.433-2.718c0-2.034,0.123-3.221,0.368-3.565c0.246-0.343,1.1-0.514,2.557-0.514
			c1.407,0,2.237,0.16,2.493,0.479c0.255,0.32,0.38,1.358,0.38,3.114C56.676,51.658,56.542,52.707,56.273,53.053z M72.515,50.445
			c-0.118,0.406-0.247,0.918-0.392,1.536l-0.179,0.768l-0.182,0.768h-0.07l-0.2-0.768l-0.191-0.76
			c-0.139-0.527-0.283-1.036-0.429-1.528l-1.716-5.759h-2.548l-1.76,5.759c-0.192,0.619-0.338,1.13-0.443,1.528l-0.203,0.76
			c-0.044,0.176-0.112,0.43-0.2,0.768h-0.074l-0.169-0.768l-0.178-0.768c-0.147-0.65-0.273-1.159-0.374-1.528l-1.652-5.751h-2.213
			l2.966,10.483h3.177l1.636-5.369c0.134-0.436,0.261-0.87,0.378-1.305l0.156-0.645l0.169-0.653h0.074l0.16,0.645
			c0.193,0.813,0.366,1.463,0.512,1.95l1.591,5.377h3.209l3.062-10.483h-2.223L72.515,50.445z M92.113,58.71l-0.091-0.198H10.81
			l-0.091,0.198c-3.85,8.272-3.907,15.467-0.169,21.385c5.804,9.193,20.698,14.566,40.863,14.742h0.003h0.003
			c20.165-0.175,35.061-5.548,40.865-14.742C96.021,74.178,95.965,66.982,92.113,58.71z M51.223,68.381
			c0.128,0.648,0.552,1.177,1.264,1.569c0.074,0.041,0.149,0.082,0.225,0.124c-0.957,0.431-1.596,1.015-1.938,1.772
			c-0.498,1.101-0.338,2.486,0.497,4.345c-0.493,1.453-1.121,2.295-1.869,2.5c-0.725,0.199-1.649-0.18-2.749-1.123
			c-1.095-4.677-0.178-9.056,2.473-12.08c0.843-0.207,1.721-0.32,2.628-0.32c0.226,0,0.45,0.01,0.672,0.023
			C51.794,66.009,50.995,67.22,51.223,68.381z M47.648,65.967c-2.274,3.166-2.936,7.322-1.862,11.851
			c-0.297,1.318-0.889,2.25-1.716,2.7c-0.676,0.367-1.492,0.399-2.299,0.089l-0.135-0.113c-0.578-1.349-0.883-2.814-0.883-4.326
			C40.754,71.556,43.611,67.599,47.648,65.967z M44.5,81.308c0.665-0.361,1.513-1.12,2.004-2.701
			c1.176,0.896,2.203,1.208,3.136,0.952c1.045-0.287,1.846-1.26,2.447-2.97c1.176-0.077,2.167,0.21,2.875,0.84
			c0.759,0.675,1.175,1.73,1.218,3.051c-2.905,2.689-6.278,4.056-10.036,4.056c-0.027,0-0.055,0-0.083,0
			c-1.623-0.145-2.671-1.389-3.546-2.835C43.214,81.768,43.896,81.636,44.5,81.308z M51.753,87.167c-2.142,0-4.188-0.61-5.945-1.744
			c0.069,0.011,0.134,0.015,0.196,0.009l0.033,0.003c0.036,0,0.072,0,0.107,0c4.033,0,7.65-1.475,10.749-4.387
			c0.84-0.386,1.503-0.46,2.029-0.229c0.61,0.268,1.101,0.99,1.455,2.145l0.003,0.013C58.366,85.527,55.248,87.167,51.753,87.167z
			 M59.287,79.996c-0.644-0.283-1.378-0.273-2.23,0.021c-0.125-1.376-0.638-2.495-1.498-3.261c-0.891-0.793-2.104-1.157-3.527-1.063
			c-0.663-1.523-0.806-2.661-0.438-3.476c0.316-0.698,1.025-1.212,2.158-1.576c2.9,1.588,6.603,3.744,8.086,7.141
			c0.285,1.654-0.231,2.974-0.909,4.071C60.512,80.909,59.972,80.297,59.287,79.996z M53.685,69.582
			c-0.263-0.144-0.52-0.283-0.764-0.418c-0.475-0.263-0.74-0.575-0.814-0.956c-0.19-0.959,0.843-2.24,1.34-2.855l0.036-0.045
			c5.246,0.832,9.269,5.386,9.269,10.861c0,0.435-0.028,0.862-0.076,1.283C60.989,73.559,56.769,71.261,53.685,69.582z
			 M18.135,86.501c-3.014-1.93-5.382-4.196-7.008-6.771c-3.575-5.663-3.535-12.569,0.12-20.534h6.888V86.501z M22.047,88.652
			c0.558,0.262,1.13,0.515,1.717,0.76C23.177,89.167,22.605,88.914,22.047,88.652z M23.786,89.42
			c0.586,0.243,1.183,0.477,1.797,0.701C24.969,89.897,24.372,89.663,23.786,89.42z M32.667,92.179V59.197h11.617v8.254
			c-2.457,2.108-4.018,5.233-4.018,8.717c0,1.918,0.466,3.765,1.347,5.409l0,0c0.001,0,0.001,0,0.001,0.001
			c0.527,0.986,1.203,1.899,2.017,2.713c0.211,0.211,0.431,0.409,0.653,0.602v8.965C40.11,93.542,36.224,92.977,32.667,92.179z
			 M55.192,94.056c1.23-0.053,2.438-0.125,3.622-0.219C57.631,93.931,56.423,94.003,55.192,94.056z M70.435,92.117
			c-3.552,0.813-7.438,1.392-11.617,1.72v-8.622c0.617-0.483,1.184-1.026,1.692-1.625v0.003l0.006-0.011
			c1.698-2.002,2.725-4.59,2.725-7.415c0-3.671-1.733-6.941-4.423-9.045v-7.926h11.617V92.117z M91.706,79.73
			c-1.577,2.497-3.853,4.706-6.739,6.598V59.197h6.619C95.24,67.161,95.28,74.068,91.706,79.73z M88.751,41.456L51.416,41.43
			l-37.335,0.025l0.168-0.459c3.604-9.929,1.888-20.147-5.102-30.37L8.683,9.947l0.81,0.148c2.229,0.41,4.387,0.618,6.415,0.618
			c5.824,0,10.899-1.717,15.085-5.104l0.179-0.144l0.202,0.11c5.272,2.884,11.796,5.834,20.039,5.739
			c0.138,0.002,0.266,0.002,0.396,0.002c8.066,0,14.46-2.902,19.651-5.741l0.201-0.11l0.179,0.144
			c4.187,3.387,9.263,5.104,15.086,5.104c2.029,0,4.186-0.208,6.414-0.618l0.81-0.148l-0.465,0.679
			c-6.988,10.223-8.704,20.441-5.1,30.37L88.751,41.456z M51.416,40.745l-0.004-28.746c0,0-0.255,0.002-0.389,0.002
			c-8.155,0-14.839-3.03-19.779-5.715c-4.277,3.393-9.436,5.112-15.337,5.113c-1.827,0-3.757-0.165-5.745-0.491
			c6.638,10.036,8.284,20.077,4.892,29.863L51.416,40.745z M59.061,29.319h0.946v1.76c0,0.378-0.08,0.665-0.237,0.858
			c-0.159,0.195-0.396,0.29-0.709,0.29c-0.359,0-0.605-0.113-0.744-0.342c-0.137-0.227-0.205-0.813-0.205-1.76v-6.786
			c0-0.594,0.068-0.99,0.205-1.188c0.139-0.194,0.385-0.293,0.744-0.293c0.341,0,0.59,0.103,0.741,0.304
			c0.15,0.205,0.227,0.541,0.227,1.011c0,0.145,0,1.241-0.005,1.325c-0.003,0.082-0.011,0.328-0.017,0.398h3.042v-2.314
			c0-1.208-0.308-2.071-0.926-2.593c-0.618-0.52-1.647-0.78-3.084-0.78c-1.461,0-2.488,0.266-3.091,0.798
			c-0.599,0.531-1.113,1.452-1.113,2.764v8.959c0,1.092,0.454,1.896,0.935,2.413c0.482,0.519,1.222,0.777,2.225,0.777
			c0.668,0,1.21-0.125,1.635-0.375c0.419-0.248,1.05-0.618,1.227-1.116l0.182,1.19h2.437v-8.178h-4.413V29.319z M73.631,19.508
			h-3.168l-2.411,5.576v-5.576h-3.001v15.111h3.001v-4.033l0.689-0.972l1.857,5.005h3.296l-3.043-7.804L73.631,19.508z
			 M82.54,29.967c-0.012-0.252-0.025-0.418-0.046-0.502c-0.087-0.297-0.191-0.573-0.323-0.833c-0.13-0.258-0.332-0.565-0.604-0.926
			c-0.125-0.166-0.402-0.441-0.831-0.833c-0.431-0.39-0.976-0.866-1.645-1.431c-0.077-0.064-0.181-0.148-0.313-0.262
			c-0.772-0.622-1.156-1.289-1.156-2.006c0-0.442,0.072-0.756,0.219-0.937c0.147-0.183,0.393-0.275,0.727-0.275
			c0.33,0,0.556,0.11,0.679,0.332c0.122,0.219,0.183,0.64,0.183,1.262v0.487h3c0-0.028,0.004-0.067,0.011-0.113
			c0.021-0.339,0.033-0.589,0.033-0.756c0-1.389-0.294-2.396-0.884-3.021c-0.589-0.629-1.538-0.943-2.843-0.943
			c-1.487,0-2.555,0.297-3.205,0.89c-0.65,0.594-0.973,1.568-0.973,2.929c0,0.484,0.013,0.873,0.046,1.169
			c0.032,0.297,0.086,0.541,0.165,0.735c0.068,0.187,0.169,0.375,0.306,0.569c0.133,0.194,0.346,0.449,0.64,0.766
			c0.182,0.209,0.446,0.467,0.79,0.778c0.345,0.311,0.908,0.792,1.695,1.448c0.547,0.463,0.9,0.849,1.058,1.152
			c0.158,0.309,0.237,0.746,0.237,1.312c0,0.44-0.076,0.751-0.225,0.932c-0.146,0.18-0.397,0.269-0.753,0.269
			c-0.353,0-0.6-0.121-0.748-0.364c-0.147-0.24-0.222-0.667-0.222-1.282c0-0.057,0.002-0.145,0.01-0.275
			c0.008-0.127,0.011-0.23,0.011-0.305h-2.968c-0.007,0.075-0.014,0.178-0.021,0.302c-0.014,0.391-0.021,0.667-0.021,0.826
			c0,1.368,0.315,2.354,0.951,2.957c0.636,0.605,1.674,0.905,3.122,0.905c1.445,0,2.459-0.289,3.039-0.865
			c0.583-0.576,0.875-1.601,0.875-3.078C82.555,30.555,82.551,30.217,82.54,29.967z M26.59,22.883h3.823v-0.879h-2.227l0.764-0.645
			h1.429v-0.484h-0.856l0.891-0.757v-0.822H26.59h-0.001v0.932l2.335,0l-0.836,0.646h-1.481v0.484h0.852L26.59,22.03V22.883z
			 M22.417,14.078v15.068c0,13.8,21.658,13.8,21.658,0V14.078H22.417z M24.136,14.583h17.916v8.49c0,11.376-17.916,11.376-17.916,0
			V14.583z M43.572,29.052c0,13.249-20.65,13.249-20.65,0v-14.47h0.926v8.488c0,11.763,18.491,11.763,18.491,0v-8.488h1.233l0,0
			V29.052z M33.577,17.371c0.063-0.396,0.271-0.646,0.901-0.58c0.101,0.009,0.099,0.604,0.004,0.548
			C34.078,17.129,33.837,17.246,33.577,17.371L33.577,17.371z M34.661,16.616c0.605,0.003,1.214,0.006,1.815,0.012
			c0.067-0.03,0.072-0.082,0.023-0.187c0.14-0.256,0.321-0.449,0.548-0.574c0.172-0.103,0.003-0.195-0.125-0.213
			c-0.175,0.012-0.286,0.082-0.358,0.222c-0.037,0.067-0.187,0.064-0.227-0.044c-0.023-0.066-0.076-0.127-0.171-0.171
			c-0.063-0.032-0.102,0.023-0.054,0.087c0.183,0.245,0.247,0.443,0.154,0.575c-0.141,0.151-0.271,0.096-0.364-0.044
			c-0.111-0.154,0-0.171,0.074-0.428c-0.109-0.155-0.2-0.33-0.338-0.471c-0.162,0.133-0.255,0.282-0.39,0.445
			c0.017,0.113,0.132,0.294,0.07,0.422c-0.103,0.266-0.271,0.236-0.409,0.024c-0.092-0.149-0.001-0.35,0.177-0.521
			c0.057-0.056,0.01-0.164-0.056-0.132c-0.126,0.052-0.248,0.231-0.358,0.108c-0.111-0.102-0.222-0.207-0.333-0.309
			c-0.116-0.099-0.276,0.003-0.165,0.096c0.148,0.14,0.267,0.289,0.329,0.458C34.557,16.185,34.53,16.412,34.661,16.616z
			 M33.818,17.828c0.022,0.17,0.246,0.376,0.531,0.443c0.124-0.096,0.181-0.268,0.189-0.51
			C34.545,17.642,34.327,17.904,33.818,17.828L33.818,17.828z M33.496,17.761c0.172-0.111,0.354-0.233,0.736-0.128
			c-0.162-0.283-0.363-0.283-0.873-0.082c-0.51,0.172-0.706-0.158-0.86-0.627c-0.189,0.053-0.375,0.44-0.28,0.74
			C32.406,18.122,32.853,18.169,33.496,17.761z M37.523,29.499c0.105,0.084,0.146,0.111,0.183,0.232
			c0.076-0.099,0.191-0.254,0.119-0.469C37.689,29.292,37.602,29.387,37.523,29.499L37.523,29.499z M36.431,29.708
			c0.152,0.104,0.308,0.154,0.488,0.187c-0.005-0.161-0.058-0.286-0.194-0.392C36.68,29.565,36.488,29.627,36.431,29.708
			L36.431,29.708z M35.702,29.376c-0.063,0.408,0.153,0.436,0.335,0.494c-0.012-0.119-0.025-0.273,0.084-0.256
			c-0.07-0.232-0.408-0.312-0.421-0.238H35.702z M35.757,28.335c-0.185,0.125-0.219,0.289-0.224,0.431
			c0.129-0.008,0.263-0.056,0.423,0C36.013,28.51,35.787,28.356,35.757,28.335 M31.168,29.516c0.104,0.062,0.227,0.082,0.445,0.046
			c-0.032-0.175-0.084-0.309-0.163-0.396C31.316,29.172,31.18,29.373,31.168,29.516L31.168,29.516z M30.115,29.913
			c0.141,0.14,0.269,0.127,0.419,0.075c-0.098-0.092-0.116-0.159-0.138-0.283C30.21,29.731,30.147,29.801,30.115,29.913
			L30.115,29.913z M29.282,29.521c-0.005,0.195,0.134,0.464,0.427,0.428c-0.045-0.131-0.073-0.148-0.013-0.262
			C29.641,29.595,29.472,29.507,29.282,29.521L29.282,29.521z M29.183,28.717c0.236-0.189,0.499-0.061,0.47-0.159
			c-0.061-0.131-0.093-0.125-0.13-0.298C29.263,28.3,29.139,28.406,29.183,28.717 M33.236,18.557
			c0.452,0.542,0.88,0.533,1.306,0.419c0.096-0.032,0.184-0.003,0.204,0.169c0.005,0.18,0.021,0.36,0,0.542
			c-0.013,0.064,0.029,0.087,0.098,0.072c0.144-0.034,0.374-0.058,0.569-0.192c0.158-0.102,0.338-0.14,0.446,0.032
			c0.081,0.142,0.177,0.22,0.415,0.155c0.013-0.491-0.298-0.67-0.128-0.998c0.199-0.408,0.354-0.801,0.254-1.204
			c0.299-0.201,0.456-0.529,0.36-0.876c-0.749,0.177-1.137,0.16-1.761-0.055c-0.62-0.198-0.632,0.431-0.52,0.699
			c0.12,0.534,0.124,1.11-0.735,1.148c-0.229,0.003-0.421,0.026-0.558,0.116C33.206,18.574,33.223,18.563,33.236,18.557z M35,16.971
			c0.025,0,0.049,0.046,0.049,0.105c0,0.058-0.023,0.104-0.049,0.104c-0.029,0-0.053-0.045-0.053-0.104
			C34.947,17.018,34.971,16.971,35,16.971z M36.78,21.08c0.044,0.11,0.206,0.079,0.259-0.003c0.053-0.104-0.078-0.203-0.187-0.177
			C36.765,20.931,36.742,20.975,36.78,21.08L36.78,21.08z M37.662,19.261c-0.098-0.055-0.171,0.071-0.148,0.134
			C37.581,19.585,37.904,19.421,37.662,19.261z M37.546,20.121c0.059-0.161-0.018-0.288-0.11-0.3
			c-0.1-0.014-0.181,0.105-0.189,0.178C37.211,20.247,37.512,20.197,37.546,20.121z M32.402,22.918c-0.004,0-0.008,0-0.012-0.001
			C32.395,22.917,32.398,22.918,32.402,22.918z M32.339,22.923c0.004-0.001,0.008-0.001,0.009-0.002
			C32.347,22.921,32.343,22.922,32.339,22.923z M32.31,22.939c-0.005,0.003-0.011,0.005-0.016,0.009
			C32.298,22.944,32.305,22.942,32.31,22.939z M32.88,19.221c-0.011,0.006-0.02,0.016-0.03,0.024
			C32.858,19.236,32.868,19.228,32.88,19.221z M37.045,20.684c0.047,0.128,0.229,0.09,0.286-0.002
			c0.058-0.123-0.087-0.239-0.204-0.207C37.027,20.512,37.005,20.562,37.045,20.684L37.045,20.684z M41.227,19.853
			c0.201,0,0.218-0.201,0.106-0.271c-0.337-0.201-0.486-0.16-0.53-0.259c0.035-0.082,0.141-0.134,0.262-0.151
			c0.179-0.032,0.132-0.3-0.051-0.307c-0.435-0.011-0.606-0.157-0.759-0.358c0.152-0.038,0.301-0.073,0.449-0.107
			c0.222-0.085,0.171-0.283-0.012-0.315c-0.245-0.012-0.364,0.021-0.579-0.026c0.41-0.143,0.591-0.361,0.044-0.553
			c-0.414-0.149-0.581-0.161-0.887-0.309c0.107-0.262,0.493-0.294,0.475-0.734c-0.382,0.183-0.649,0.061-0.923,0.394
			c0.103-0.621-0.515-1.513-1.579-1.757c0.245,0.545,0.313,1.41-0.124,2.063c-0.427,0.551-0.779,1.798-0.785,2.407
			c-0.003,0.188,0.122,0.239-0.096,0.468c0,0.002-0.001,0.002-0.001,0.004c0,0-0.002-0.001-0.003-0.001v0.001v-0.001
			c-0.257-0.006-0.354-0.187-0.466-0.337c-0.056-0.076-0.146-0.076-0.235-0.02c-0.339,0.191-0.653,0.206-0.973,0.273
			c0.047-0.222,0.081-0.463,0.074-0.697c-0.002-0.12-0.053-0.171-0.189-0.131c-0.346,0.116-0.942,0.005-1.318-0.492c0,0,0,0-0.001,0
			v0c0.001,0,0.001,0,0.001,0c0.016-0.016,0.035-0.032,0.055-0.046c-0.145,0.101-0.229,0.279-0.228,0.6
			c-0.005,0.001-0.01,0.005-0.017,0.007c0.007-0.001,0.013-0.005,0.02-0.007c0.141,0.184,0.306,0.469,0.42,0.586
			c0.101,0.116,0.154,0.145,0.478,0.078c0.037,0.245,0.061,0.533,0.099,0.778c0.778-0.181,1.283,0.069,1.77,0.471
			c-0.517,0.149-1.105-0.148-1.527,0.219c-0.304,0.344-0.071,0.706,0.233,0.842c0.482,0.189,1.315-0.035,1.777-0.644
			c0.306,0.11,0.854,0.239,1.306-0.245c0.227-0.332,0.604-0.869,0.655-1.052c0.028-0.364-0.128-0.618,0.049-0.693
			c0.166-0.102,0.379-0.516-0.028-0.618c-0.205-0.047-0.271-0.192-0.35-0.338c-0.1-0.183-0.498-0.279-0.718-0.248
			c-0.203,0.058-0.389,0.251-0.611,0.233l0,0c0.015-0.067,0.035-0.131,0.056-0.198c0.066,0.104,0.306-0.152,0.502-0.178
			c0.311,0,0.713-0.021,0.986,0.408c0.054,0.094,0.097,0.161,0.39,0.283c0.326,0.157,0.057,0.506-0.021,0.708
			c-0.037,0.123-0.048,0.388-0.028,0.574c0.019,0.307-0.458,0.399-0.421,0.866c-0.432,0.283,0.147,0.466,0.223,0.696
			c-0.228-0.038-0.37-0.175-0.545-0.277c-0.157-0.069-0.372,0.128-0.306,0.578c-0.206-0.05-0.166-0.158-0.294-0.239
			c-0.277-0.128-0.468-0.055-0.414,0.422c0.003,0.055-0.098,0.07-0.107,0c-0.026-0.113-0.05-0.227-0.073-0.341
			c-0.028-0.116-0.085-0.093-0.16-0.035c-0.701,0.442-1.472,0.705-1.99,0.454c-0.46-0.265-0.6-0.781-0.275-1.007
			c0.314-0.222,0.731-0.294,1.191-0.265c-0.138-0.23-0.6-0.341-1.403-0.239c-0.01-0.257-0.086-0.647-0.098-0.76
			c-0.132,0.003-0.257-0.012-0.333-0.066c-0.277-0.178-0.371-0.683-0.554-0.683c-0.064,0.06-0.118,0.153-0.162,0.289
			c-0.852-0.977-2.058-2.328-2.926-2.442c-1.102-0.137-1.608,0.216-1.687,0.971c-0.813,0-1.627,0-2.439,0c0,1.285,0,2.572,0,3.858
			c0.064,1.818,1.714,2.788,2.959,2.674c0.156,0.388,0.479,0.49,0.69,0.394l0.001,0c0.071-0.055,0.166-0.041,0.318,0.07
			c0.72,0.481,1.415-1.035,2.296-1.917c0.088-0.093,0.279-0.05,0.376-0.163c0-0.001,0.001-0.002,0.002-0.002
			c-0.001,0-0.002,0.001-0.002,0.002c-0.003-0.455-0.042-0.903-0.563-0.991c0.002-0.008-0.697,1.133-0.697,1.133
			s0.136-0.287,0.212-0.61c0.072-0.312,0.133-0.736,0.16-0.814c0.006-0.017,0.357,0.205,0.362,0.19
			c0.548,0.005,0.571,0.209,0.712,1.028c-0.004-0.002-0.009-0.002-0.013-0.002c0.068,0.021,0.145,0.078,0.222,0.174v-0.002
			c-0.077-0.77,0.199-0.984,0.356-1.22v0c0.151-0.186,0.227-0.592,0.044-0.781c-0.293-0.207-0.764-0.046-0.984,0.099
			c-0.129,0.082-0.342,0.143-0.393,0.029c0.007-0.024,0.024-0.052,0.034-0.079c0.41-0.076,0.986-0.478,1.397-0.183
			c0.313,0.248,0.244,0.623,0.035,0.964c-0.172,0.268-0.345,0.541-0.37,0.958c0.062-0.028,0.141-0.01,0.218,0.069
			c0.402,0.528,1.139,1.021,1.775,1.093c0.154,0.023,0.224,0.131,0.312,0.277c0.063,0.113,0.244,0.242,0.317,0.71
			c-1.927-0.949-3.467-0.993-4.628-0.125c-1.058,0.933-0.745,1.693,0.073,2.369c0.012,0.062,0.112,0.128,0.035,0.196
			c-0.129,0.023,0,0.483-0.092,0.699c-0.283,0.07-0.949-0.242-1.269,0.08c-0.023,0.136,0.233,0.334,0.177,0.529
			c-0.32,0.143-0.522,0.48-0.413,0.738c0.149-0.006,0.321,0.037,0.413,0.166c0.009-0.084,0.187-0.108,0.205-0.006
			c0.009,0.119,0.069,0.26,0.215,0.23c0.055-0.163,0.145-0.178,0.278-0.207c-0.01-0.414,0.37-0.443,0.773-0.189
			c0.022-0.161,0.147-0.335,0.282-0.351c-0.174-0.533,0.259-1.397,0.9-2.243c0.219-0.314,0.095-0.344,0.053-0.466
			c-0.077-0.292,0.13-0.449,0.699-0.487c1.833-0.11,3.487,0.347,3.928,1.239c-1.273,0.018-3.324,0.14-3.625,0.123
			c-0.394-0.029-0.938,0.265-1.102,0.545c-0.515,0.836-0.601,1.142-0.454,1.323c0.045,0.072,0.049,0.293,0.061,0.468
			c0.266-0.082,0.283-0.318,0.549-0.468c-0.03,0.387,0.137,0.297,0.09,0.681c0.208-0.148,0.387-0.35,0.554-0.595
			c0.066-0.095,0.12,0.003,0.157,0.108c0.144-0.09,0.321-0.32,0.47-0.466c0.037,0.029,0.072,0.113,0.086,0.21
			c0.196-0.082,0.25-0.353,0.347-0.533c0.458-0.767,1.691-1.029,2.814-0.896c0.107,0.004,0.185-0.002,0.054,0.108
			c-0.082,0.062,0.051,0.277,0.016,0.391c-0.091,0.35-0.217,0.032-0.303-0.032c-0.368-0.253-1.03-0.014-0.986,0.16
			c0.144,0.117,0.229,0.23,0.197,0.432c-0.229,0.078-0.262,0.247-0.306,0.413c-0.035,0.096-0.017,0.187,0.052,0.196
			c0.153-0.009,0.345,0.029,0.42,0.239c0.052,0.13,0.239,0.183,0.301,0.102c0.088-0.113,0.3-0.152,0.322-0.25
			c0.082-0.254,0.332-0.19,0.581-0.131c0.065,0.025,0.049,0.099,0.137,0.18c0.061,0.063,0.122-0.187,0.335-0.239
			c0.148-0.048,0.052-0.276,0.112-0.583c0.125-0.502,0.455-0.78,0.683-1.431c0.775-0.344,1.698-1.116,1.347-2.369
			c-0.356-1.081-1.398-1.331-2.513-1.156c-0.344,0.049-0.594-0.455-1.741-1.32c0.188,0.035,0.357,0.009,0.611,0.289
			c0.271,0.306,0.726,0.588,0.833,0.212c0.14,0.201,0.314,0.125,0.297-0.286c-0.016-0.247,0.161-0.265,0.595,0.103
			c0.041,0.052,0.203,0.076,0.194-0.067c-0.031-0.169,0.024-0.169,0.163-0.05c0.086,0.076,0.234,0.009,0.141-0.253
			c-0.114-0.256,0.085-0.265,0.592-0.145c0.181,0.031,0.297-0.131,0.165-0.242c-0.142-0.103-0.29-0.175-0.451-0.259
			c0.348-0.017,0.693,0.084,1.039,0.448c0.104,0.134,0.264-0.017,0.144-0.25c-0.11-0.201-0.397-0.283-0.507-0.414
			c0.325-0.059,0.467-0.047,0.828,0.014c0.191,0.029,0.378-0.026,0.271-0.175c-0.061-0.102-0.142-0.169-0.213-0.233
			c0.129-0.032,0.302,0.053,0.429,0.108c0.146,0.058,0.242-0.134,0.059-0.271c-0.186-0.13-0.42-0.212-0.487-0.375
			c0.173-0.149,0.449-0.306,0.734-0.306c0.19-0.012,0.242-0.207,0.117-0.274c-0.239-0.128-0.277-0.131-0.368-0.209
			C41.083,19.749,41.106,19.842,41.227,19.853z M35.025,22.018c-0.206,0.067-0.359-0.003-0.513-0.134
			c-0.084-0.079-0.087-0.227,0.029-0.33c0.093-0.087,0.233-0.168,0.435-0.134c0.12,0.018,0.143,0.144,0.017,0.123l0,0
			c-0.291,0.018-0.386,0.213-0.218,0.318c0.092,0.046,0.192,0.037,0.297,0.023C35.188,21.881,35.16,21.986,35.025,22.018z
			 M37.147,19.288c-0.073-0.058-0.207,0.011-0.05-0.323c0.037-0.108,0.177-0.262,0.213-0.128c0.054,0.242,0.191,0.143,0.307,0.189
			c0.459,0.253,0.342,0.649,0.028,0.591c-0.079-0.002-0.096,0.058-0.013,0.152c0.221,0.28,0.053,0.536-0.116,0.507
			c-0.084-0.003-0.101,0.07-0.072,0.123c0.128,0.3,0.008,0.571-0.242,0.48c-0.078-0.012-0.112,0.044-0.066,0.093
			c0.087,0.28-0.193,0.382-0.289,0.275c-0.066-0.05-0.13-0.026-0.133,0.052c-0.018,0.207-0.479,0.23-0.336,0.055l0,0
			C36.695,20.917,37.537,19.563,37.147,19.288z M37.966,17.586c-0.031,0.09-0.327,0.09-0.265-0.034
			c0.19-0.449,0.221-0.901,0.247-1.353c0.003-0.113,0.12-0.017,0.131,0.07C38.121,16.691,38.104,17.109,37.966,17.586z
			 M30.969,21.701c0,0.897-0.384,1.544-0.935,1.94c-0.081-0.029-0.14-0.11-0.181-0.256c-0.209,0.11-0.152,0.294-0.191,0.475
			c-0.07,0.032-0.143,0.064-0.215,0.09c-0.048-0.064-0.077-0.155-0.105-0.269c-0.216,0.024-0.324,0.158-0.336,0.384
			c-0.029,0.007-0.058,0.009-0.086,0.016c-0.067-0.093-0.067-0.208-0.117-0.315c-0.175,0.079-0.232,0.21-0.232,0.341
			c-1.242,0.023-2.497-0.78-2.497-2.407v-3.211h2.185c0.091,0.161,0.217,0.3,0.422,0.399c0-0.151,0.067-0.288,0.188-0.399h0.127
			c0.064,0.134,0.112,0.359,0.266,0.361c0.04-0.16,0.082-0.277,0.181-0.361h0.294c0.114,0.148,0.02,0.361,0.169,0.371
			c0.05-0.14,0.28-0.204,0.414-0.371h0.651V21.701z M32.725,19.801c-0.245-0.108-0.263,0.271-0.659,0.425
			c-0.004-0.019-0.669,0.277-0.669,0.277l-0.022-0.97c0,0,0.668,0.582,0.668,0.571c0.221-0.093,0.256-0.401,0.633-0.556
			C32.76,19.603,32.822,19.839,32.725,19.801z M39.396,24.856c0.212,0.554,0.245,1.186-0.593,1.658
			c-0.007-0.251-0.012-0.504-0.019-0.757c-0.308,0.127-0.655,0.194-0.902,0.107c-0.382-0.565-0.023-1.291-0.197-1.588
			C38.27,24.146,39.09,24.239,39.396,24.856z M38.527,18.038c0.188-0.103,0.376-0.265,0.627-0.256
			c0.224,0.017,0.409,0.079,0.216,0.16c-0.238,0.094-0.425,0.154-0.646,0.253l0,0C38.543,18.277,38.342,18.137,38.527,18.038z
			 M38.988,20.888c-0.096,0.023-0.57,0.029-0.811,0.017h0.002c-0.044-0.002-0.044-0.082,0.023-0.086
			c0.259-0.026,0.454-0.111,0.78-0.079C39.053,20.751,39.056,20.867,38.988,20.888z M39.548,20.125
			c-0.097,0.038-0.486,0.09-0.775,0.046l0.002,0c-0.095-0.012-0.068-0.163,0.024-0.143c0.307,0.055,0.47,0.055,0.568-0.076
			C39.426,19.865,39.696,20.055,39.548,20.125z M39.837,19.154c-0.291,0.022-0.575,0.114-0.837,0.171l0,0
			c-0.125,0.033-0.172-0.184-0.017-0.228c0.203-0.055,0.398-0.099,0.615-0.139C39.703,18.936,40.077,19.154,39.837,19.154z
			 M31.7,33.602 M31.7,33.602c0.245-0.327,0.824,0.104,0.481,0.594c-0.563,0.839-0.495,1.433,0.016,2.033
			c0.559,0.63,1.456,0.554,1.989,0.111c0.737-0.734,0.529-1.527,0.009-2.079c-0.332-0.34,0.11-0.824,0.514-0.527
			c1.444,1.544,0.292,2.844-0.532,3.047c-0.858,0.423-1.625,0.245-2.348-0.209C31.048,35.425,31.024,34.524,31.7,33.602
			 M25.597,29.959c-0.289,0.591-0.219,0.999,0.219,1.401c0.061,0.046,0.134,0.023,0.159-0.062c0.236-0.702,0.137-0.896-0.203-1.305
			C25.699,29.936,25.651,29.871,25.597,29.959 M27.429,34.111c0.073,0.343,0.306,0.565,0.631,0.784
			c-0.027,0.021-0.051,0.038-0.074,0.059c-0.592-0.581-1.122-0.277-1.666-0.198c-0.125,0.035-0.189,0.131-0.093,0.206
			c0.415,0.37,1.066,0.591,1.672,0.443c0.095-0.053,0.228-0.164,0.161-0.356c0.021-0.052,0.084-0.087,0.202-0.014
			c0.198,0.154,0.356,0.215,0.815,0.48c-0.293-0.006-0.483,0.158-0.695,0.169c-0.121,0.021-0.093,0.12,0.014,0.155
			c0.34,0.087,0.762-0.169,1.421-0.088c0.093,0.006,0.206,0.041,0.299,0.099c0.069,0.035,0.137-0.018,0.041-0.104
			c-0.189-0.123-0.74-0.248-0.858-0.304c-0.063-0.025-0.063-0.084,0.048-0.072c0.099-0.003,0.167-0.061,0.146-0.187
			c-0.104-0.551-0.588-0.76-0.842-0.865c-0.114-0.041-0.201,0-0.169,0.094c0.093,0.407,0.264,0.621,0.469,0.743
			c0.11,0.094-0.073,0.044-0.147,0.021c-0.551-0.236-1.213-0.831-1.272-1.078C27.51,34.003,27.418,34.006,27.429,34.111
			L27.429,34.111z M38.953,34.323c-0.076,0.341-0.306,0.566-0.629,0.785c0.023,0.017,0.05,0.038,0.072,0.055
			c0.592-0.576,1.026-0.107,1.57-0.029c0.119,0.018,0.176,0.115,0.094,0.204c-0.416,0.37-0.908,0.396-1.53,0.279
			c-0.146-0.028-0.269-0.186-0.206-0.354c-0.023-0.053-0.087-0.087-0.207-0.014c-0.198,0.153-0.353,0.215-0.816,0.477
			c0.294-0.005,0.484,0.161,0.697,0.173c0.117-0.003,0.094,0.116-0.015,0.153c-0.345,0.064-0.757-0.171-1.419-0.086
			c-0.108,0.014-0.206,0.038-0.297,0.096c-0.073,0.061-0.151-0.028-0.044-0.103c0.188-0.122,0.739-0.247,0.862-0.302
			c0.062-0.026,0.058-0.084-0.053-0.073c-0.096-0.003-0.163-0.061-0.144-0.186c0.104-0.551,0.59-0.761,0.84-0.866
			c0.114-0.044,0.196,0,0.172,0.09c-0.096,0.412-0.264,0.623-0.469,0.743c-0.111,0.097,0.071,0.047,0.148,0.02
			c0.551-0.232,1.21-0.827,1.271-1.077C38.855,34.217,38.965,34.219,38.953,34.323L38.953,34.323z M40.879,30.102
			c0.289,0.591,0.216,1-0.222,1.398c-0.061,0.05-0.129,0.024-0.156-0.061c-0.235-0.702-0.137-0.898,0.2-1.302
			C40.753,30.079,40.821,30.014,40.879,30.102z M40.501,32.558c0.69-0.912-0.766-1.338-0.883-0.475
			c-0.633-0.772-1.353,0.227-0.701,0.749c-0.773,0.379-0.286,1.357,0.431,1.072c0.022,0.79,1.339,0.745,1.18-0.184
			C41.068,34.009,41.914,32.537,40.501,32.558z M39.764,33.65c-0.32,0-0.586-0.262-0.586-0.585s0.266-0.586,0.586-0.586
			c0.322,0,0.587,0.263,0.587,0.586S40.087,33.65,39.764,33.65z M27.562,32.689c0.646-0.521-0.075-1.521-0.707-0.748
			c-0.116-0.863-1.573-0.435-0.878,0.477v0.001c-1.418-0.024-0.572,1.447-0.027,1.16c-0.164,0.929,1.125,0.976,1.18,0.186
			C27.845,34.05,28.333,33.071,27.562,32.689z M26.71,33.508c-0.323,0-0.586-0.263-0.586-0.586c0-0.319,0.264-0.586,0.586-0.584
			c0.322-0.001,0.584,0.265,0.584,0.584C27.294,33.246,27.032,33.508,26.71,33.508z M39.764,33.496c0.238,0,0.435-0.191,0.435-0.431
			c0-0.239-0.196-0.434-0.435-0.434c-0.236,0-0.431,0.195-0.431,0.434C39.333,33.304,39.527,33.496,39.764,33.496 M26.71,33.356
			c0.238,0,0.431-0.195,0.431-0.435c0-0.235-0.192-0.431-0.431-0.431c-0.24,0-0.431,0.195-0.431,0.431
			C26.279,33.16,26.47,33.356,26.71,33.356 M32.929,37.068c0.049-0.047,0.109-0.083,0.177-0.105
			c-0.423-0.016-0.855-0.167-1.21-0.533c-0.578-0.693-0.896-1.596-0.119-2.882l0,0c0.353-0.483-0.222-0.897-0.563-0.485
			c-0.877,1.057-0.941,2.088-0.378,2.956c0.123,0.153,0.251,0.288,0.382,0.41c-0.93-0.164-1.191,0.364-1.128,0.683l0,0
			c0.217-0.023,0.432-0.032,0.647,0.058c-0.207,0.257-0.264,0.531-0.035,0.706c0.148-0.313,0.455-0.399,1.025-0.353
			c-0.144,0.122-0.176,0.367-0.049,0.572c0.192-0.175,0.378-0.374,0.66-0.251c0.152-0.199,0.305-0.324,0.454-0.394
			c-0.001-0.017-0.005-0.032-0.005-0.049c0-0.057,0.012-0.111,0.029-0.162C32.841,37.174,32.88,37.116,32.929,37.068z
			 M35.378,36.295c0.109-0.136,0.206-0.281,0.285-0.436c0.49-1.002,0.081-1.988-0.45-2.839c-0.31-0.334-1.012,0.131-0.708,0.519
			c1.061,1.419,0.773,2.282,0.018,2.984c-0.277,0.21-0.684,0.383-1.123,0.429c-0.003,0.003-0.005,0.007-0.009,0.011
			c0.054,0.018,0.102,0.046,0.145,0.08c0.064,0.053,0.113,0.122,0.143,0.201c0.017,0.048,0.028,0.101,0.028,0.156
			c0,0.099-0.032,0.189-0.085,0.265c0.156,0.11,0.33,0.194,0.59,0.187c0.139-0.033,0.334,0.072,0.498,0.242
			c0.099,0.107,0.336-0.048,0.218-0.175c-0.093-0.116-0.228-0.266-0.052-0.397c0.063,0.215,0.447,0.146,0.672,0.219
			c0.025-0.143,0-0.314-0.134-0.504c0.23-0.014,0.375-0.195,0.688-0.041c0.07,0.053,0.118-0.02,0.126-0.119
			C36.249,36.658,35.835,36.465,35.378,36.295z M32.986,34.02c0,0.149,0.123,0.271,0.273,0.271c0.148,0,0.271-0.122,0.271-0.271
			c0-0.151-0.123-0.273-0.271-0.273C33.109,33.747,32.986,33.869,32.986,34.02z M34.369,34.346
			c-0.253-0.267-0.812,0.018-0.552,0.557c0.177,0.385,0.281,0.964,0.038,1.375c-0.064,0.104-0.144,0.18-0.231,0.232
			c-0.034,0.099-0.072,0.191-0.117,0.275c0.147-0.033,0.299-0.094,0.452-0.186C34.949,35.927,34.991,35.222,34.369,34.346z
			 M33.563,33.569c0,0.148,0.122,0.27,0.271,0.27c0.152,0,0.271-0.122,0.271-0.27c0-0.152-0.118-0.271-0.271-0.271
			C33.686,33.298,33.563,33.417,33.563,33.569z M33.641,32.617c-0.147,0-0.27,0.122-0.27,0.27s0.122,0.271,0.27,0.271
			c0.149,0,0.272-0.123,0.272-0.271S33.79,32.617,33.641,32.617z M32.815,32.634c-0.15,0-0.272,0.122-0.272,0.271
			c0,0.151,0.122,0.271,0.272,0.271c0.147,0,0.27-0.12,0.27-0.271C33.085,32.756,32.963,32.634,32.815,32.634z M32.375,33.645
			c0,0.148,0.121,0.271,0.272,0.271c0.149,0,0.269-0.122,0.269-0.271c0-0.151-0.119-0.274-0.269-0.274
			C32.496,33.371,32.375,33.494,32.375,33.645z M32.197,36.465c0.272,0.177,0.55,0.299,0.83,0.339
			c-0.043-0.09-0.083-0.197-0.118-0.315c-0.097-0.059-0.185-0.139-0.258-0.242c-0.257-0.367-0.314-0.833-0.041-1.387
			c0.23-0.399-0.235-0.886-0.682-0.454C31.469,35.064,31.562,35.717,32.197,36.465z M33.371,36.853L33.371,36.853
			c0.234-0.437,0.402-1.509,0.222-1.824c-0.198-0.297-0.584-0.25-0.677,0.055c-0.072,0.289-0.026,1.113,0.256,1.789
			C33.222,36.94,33.32,36.935,33.371,36.853z M32.897,33.391c0.001,0.178,0.144,0.321,0.321,0.321s0.323-0.143,0.323-0.321
			c0-0.178-0.146-0.323-0.323-0.323S32.897,33.213,32.897,33.391z M33.429,33.391c0,0.114-0.094,0.207-0.21,0.207
			c-0.113,0-0.206-0.093-0.206-0.207c0-0.117,0.093-0.209,0.206-0.209C33.335,33.182,33.429,33.274,33.429,33.391z M33.246,37.083
			c-0.176,0-0.319,0.143-0.319,0.317s0.144,0.318,0.319,0.318c0.174,0,0.317-0.143,0.317-0.318S33.42,37.083,33.246,37.083z
			 M25.021,32.479c0.108,0.108,0.304,0.055,0.188-0.134c-0.135-0.242-0.019-0.347,0.335-0.279c0.157,0.046,0.157-0.233,0-0.256
			C25.04,31.718,24.619,32.022,25.021,32.479 M28.379,32.742c-0.174-0.03-0.277-0.225-0.053-0.245
			c0.31-0.058,0.181-0.323-0.045-0.353c-0.193,0.008-0.22-0.152,0-0.186C28.924,31.911,28.914,32.773,28.379,32.742L28.379,32.742z
			 M38.097,32.885c0.172-0.029,0.275-0.228,0.053-0.249c-0.311-0.057-0.184-0.323,0.044-0.351c0.191,0.009,0.219-0.15,0-0.184
			C37.552,32.054,37.561,32.917,38.097,32.885L38.097,32.885z M41.45,32.619c-0.104,0.107-0.303,0.056-0.184-0.131
			c0.133-0.245,0.015-0.347-0.335-0.283c-0.159,0.046-0.159-0.229,0-0.253C41.437,31.861,41.853,32.165,41.45,32.619L41.45,32.619z"
			/>
	</g>
</g>
<g id="sponsor_box">
</g>
<g id="table_box">
</g>
<g id="menu_belt">
</g>
<g id="menu_divs">
</g>
<g id="logos">
	<g id="logo_gok">
	</g>
</g>
<g id="Layer_11">
</g>
<g id="Guides">
</g>
<g id="_x31_2_Col_Grid" display="none" opacity="0.1" enable-background="new    ">
</g>
</svg>
