 game_id,round_id,host_id,host_goals,visitor_id,visitor_goals,season_id,date
183,1,1,null,14,null,2,2013-09-14 18:00:00
184,1,2,null,13,null,2,2013-09-14 18:00:00
185,1,pauza,null,12,null,2,2013-09-14 18:00:00
186,1,4,null,11,null,2,2013-09-14 18:00:00
187,1,5,null,10,null,2,2013-09-14 18:00:00
188,1,6,null,9,null,2,2013-09-14 18:00:00
189,1,7,null,8,null,2,2013-09-14 18:00:00
190,2,14,null,8,null,2,2013-09-21 18:00:00
191,2,9,null,7,null,2,2013-09-21 18:00:00
192,2,10,null,6,null,2,2013-09-21 18:00:00
193,2,11,null,5,null,2,2013-09-21 18:00:00
194,2,12,null,4,null,2,2013-09-21 18:00:00
195,2,13,null,pauza,null,2,2013-09-21 18:00:00
196,2,1,null,2,null,2,2013-09-21 18:00:00
197,3,2,null,14,null,2,2013-09-28 18:00:00
198,3,pauza,null,1,null,2,2013-09-28 18:00:00
199,3,4,null,13,null,2,2013-09-28 18:00:00
200,3,5,null,12,null,2,2013-09-28 18:00:00
201,3,6,null,11,null,2,2013-09-28 18:00:00
202,3,7,null,10,null,2,2013-09-28 18:00:00
203,3,8,null,9,null,2,2013-09-28 18:00:00
204,4,14,null,9,null,2,2013-10-05 18:00:00
205,4,10,null,8,null,2,2013-10-05 18:00:00
206,4,11,null,7,null,2,2013-10-05 18:00:00
207,4,12,null,6,null,2,2013-10-05 18:00:00
208,4,13,null,5,null,2,2013-10-05 18:00:00
209,4,1,null,4,null,2,2013-10-05 18:00:00
210,4,2,null,pauza,null,2,2013-10-05 18:00:00
211,5,pauza,null,14,null,2,2013-10-12 18:00:00
212,5,4,null,2,null,2,2013-10-12 18:00:00
213,5,5,null,1,null,2,2013-10-12 18:00:00
214,5,6,null,13,null,2,2013-10-12 18:00:00
215,5,7,null,12,null,2,2013-10-12 18:00:00
216,5,8,null,11,null,2,2013-10-12 18:00:00
217,5,9,null,10,null,2,2013-10-12 18:00:00
218,6,14,null,10,null,2,2013-10-19 18:00:00
219,6,11,null,9,null,2,2013-10-19 18:00:00
220,6,12,null,8,null,2,2013-10-19 18:00:00
221,6,13,null,7,null,2,2013-10-19 18:00:00
222,6,1,null,6,null,2,2013-10-19 18:00:00
223,6,2,null,5,null,2,2013-10-19 18:00:00
224,6,pauza,null,4,null,2,2013-10-19 18:00:00
225,7,4,null,14,null,2,2013-10-26 18:00:00
226,7,5,null,pauza,null,2,2013-10-26 18:00:00
227,7,6,null,2,null,2,2013-10-26 18:00:00
228,7,7,null,1,null,2,2013-10-26 18:00:00
229,7,8,null,13,null,2,2013-10-26 18:00:00
230,7,9,null,12,null,2,2013-10-26 18:00:00
231,7,10,null,11,null,2,2013-10-26 18:00:00
232,8,14,null,11,null,2,2013-11-09 18:00:00
233,8,12,null,10,null,2,2013-11-09 18:00:00
234,8,13,null,9,null,2,2013-11-09 18:00:00
235,8,1,null,8,null,2,2013-11-09 18:00:00
236,8,2,null,7,null,2,2013-11-09 18:00:00
237,8,pauza,null,6,null,2,2013-11-09 18:00:00
238,8,4,null,5,null,2,2013-11-09 18:00:00
239,9,5,null,14,null,2,2013-11-16 18:00:00
240,9,6,null,4,null,2,2013-11-16 18:00:00
241,9,7,null,pauza,null,2,2013-11-16 18:00:00
242,9,8,null,2,null,2,2013-11-16 18:00:00
243,9,9,null,1,null,2,2013-11-16 18:00:00
244,9,10,null,13,null,2,2013-11-16 18:00:00
245,9,11,null,12,null,2,2013-11-16 18:00:00
246,10,14,null,12,null,2,2013-11-23 18:00:00
247,10,13,null,11,null,2,2013-11-23 18:00:00
248,10,1,null,10,null,2,2013-11-23 18:00:00
249,10,2,null,9,null,2,2013-11-23 18:00:00
250,10,pauza,null,8,null,2,2013-11-23 18:00:00
251,10,4,null,7,null,2,2013-11-23 18:00:00
252,10,5,null,6,null,2,2013-11-23 18:00:00
253,11,6,null,14,null,2,2013-11-30 18:00:00
254,11,7,null,5,null,2,2013-11-30 18:00:00
255,11,8,null,4,null,2,2013-11-30 18:00:00
256,11,9,null,pauza,null,2,2013-11-30 18:00:00
257,11,10,null,2,null,2,2013-11-30 18:00:00
258,11,11,null,1,null,2,2013-11-30 18:00:00
259,11,12,null,13,null,2,2013-11-30 18:00:00
260,12,14,null,13,null,2,2013-12-07 18:00:00
261,12,1,null,12,null,2,2013-12-07 18:00:00
262,12,2,null,11,null,2,2013-12-07 18:00:00
263,12,pauza,null,10,null,2,2013-12-07 18:00:00
264,12,4,null,9,null,2,2013-12-07 18:00:00
265,12,5,null,8,null,2,2013-12-07 18:00:00
266,12,6,null,7,null,2,2013-12-07 18:00:00
267,13,7,null,14,null,2,2013-12-14 18:00:00
268,13,8,null,6,null,2,2013-12-14 18:00:00
269,13,9,null,5,null,2,2013-12-14 18:00:00
270,13,10,null,4,null,2,2013-12-14 18:00:00
271,13,11,null,pauza,null,2,2013-12-14 18:00:00
272,13,12,null,2,null,2,2013-12-14 18:00:00
273,13,13,null,1,null,2,2013-12-14 18:00:00
274,14,14,null,1,null,2,2014-01-18 18:00:00
275,14,13,null,2,null,2,2014-01-18 18:00:00
276,14,12,null,pauza,null,2,2014-01-18 18:00:00
277,14,11,null,4,null,2,2014-01-18 18:00:00
278,14,10,null,5,null,2,2014-01-18 18:00:00
279,14,9,null,6,null,2,2014-01-18 18:00:00
280,14,8,null,7,null,2,2014-01-18 18:00:00
281,15,8,null,14,null,2,2014-01-25 18:00:00
282,15,7,null,9,null,2,2014-01-25 18:00:00
283,15,6,null,10,null,2,2014-01-25 18:00:00
284,15,5,null,11,null,2,2014-01-25 18:00:00
285,15,4,null,12,null,2,2014-01-25 18:00:00
286,15,pauza,null,13,null,2,2014-01-25 18:00:00
287,15,2,null,1,null,2,2014-01-25 18:00:00
288,16,14,null,2,null,2,2014-02-01 18:00:00
289,16,1,null,pauza,null,2,2014-02-01 18:00:00
290,16,13,null,4,null,2,2014-02-01 18:00:00
291,16,12,null,5,null,2,2014-02-01 18:00:00
292,16,11,null,6,null,2,2014-02-01 18:00:00
293,16,10,null,7,null,2,2014-02-01 18:00:00
294,16,9,null,8,null,2,2014-02-01 18:00:00
295,17,9,null,14,null,2,2014-02-08 18:00:00
296,17,8,null,10,null,2,2014-02-08 18:00:00
297,17,7,null,11,null,2,2014-02-08 18:00:00
298,17,6,null,12,null,2,2014-02-08 18:00:00
299,17,5,null,13,null,2,2014-02-08 18:00:00
300,17,4,null,1,null,2,2014-02-08 18:00:00
301,17,pauza,null,2,null,2,2014-02-08 18:00:00
302,18,14,null,pauza,null,2,2014-02-15 18:00:00
303,18,2,null,4,null,2,2014-02-15 18:00:00
304,18,1,null,5,null,2,2014-02-15 18:00:00
305,18,13,null,6,null,2,2014-02-15 18:00:00
306,18,12,null,7,null,2,2014-02-15 18:00:00
307,18,11,null,8,null,2,2014-02-15 18:00:00
308,18,10,null,9,null,2,2014-02-15 18:00:00
309,19,10,null,14,null,2,2014-02-22 18:00:00
310,19,9,null,11,null,2,2014-02-22 18:00:00
311,19,8,null,12,null,2,2014-02-22 18:00:00
312,19,7,null,13,null,2,2014-02-22 18:00:00
313,19,6,null,1,null,2,2014-02-22 18:00:00
314,19,5,null,2,null,2,2014-02-22 18:00:00
315,19,4,null,pauza,null,2,2014-02-22 18:00:00
316,20,14,null,4,null,2,2014-03-01 18:00:00
317,20,pauza,null,5,null,2,2014-03-01 18:00:00
318,20,2,null,6,null,2,2014-03-01 18:00:00
319,20,1,null,7,null,2,2014-03-01 18:00:00
320,20,13,null,8,null,2,2014-03-01 18:00:00
321,20,12,null,9,null,2,2014-03-01 18:00:00
322,20,11,null,10,null,2,2014-03-01 18:00:00
323,21,11,null,14,null,2,2014-03-08 18:00:00
324,21,10,null,12,null,2,2014-03-08 18:00:00
325,21,9,null,13,null,2,2014-03-08 18:00:00
326,21,8,null,1,null,2,2014-03-08 18:00:00
327,21,7,null,2,null,2,2014-03-08 18:00:00
328,21,6,null,pauza,null,2,2014-03-08 18:00:00
329,21,5,null,4,null,2,2014-03-08 18:00:00
330,22,14,null,5,null,2,2014-03-15 18:00:00
331,22,4,null,6,null,2,2014-03-15 18:00:00
332,22,pauza,null,7,null,2,2014-03-15 18:00:00
333,22,2,null,8,null,2,2014-03-15 18:00:00
334,22,1,null,9,null,2,2014-03-15 18:00:00
335,22,13,null,10,null,2,2014-03-15 18:00:00
336,22,12,null,11,null,2,2014-03-15 18:00:00
337,23,12,null,14,null,2,2014-03-22 18:00:00
338,23,11,null,13,null,2,2014-03-22 18:00:00
339,23,10,null,1,null,2,2014-03-22 18:00:00
340,23,9,null,2,null,2,2014-03-22 18:00:00
341,23,8,null,pauza,null,2,2014-03-22 18:00:00
342,23,7,null,4,null,2,2014-03-22 18:00:00
343,23,6,null,5,null,2,2014-03-22 18:00:00
344,24,14,null,6,null,2,2014-03-29 18:00:00
345,24,5,null,7,null,2,2014-03-29 18:00:00
346,24,4,null,8,null,2,2014-03-29 18:00:00
347,24,pauza,null,9,null,2,2014-03-29 18:00:00
348,24,2,null,10,null,2,2014-03-29 18:00:00
349,24,1,null,11,null,2,2014-03-29 18:00:00
350,24,13,null,12,null,2,2014-03-29 18:00:00
351,25,13,null,14,null,2,2014-04-05 18:00:00
352,25,12,null,1,null,2,2014-04-05 18:00:00
353,25,11,null,2,null,2,2014-04-05 18:00:00
354,25,10,null,pauza,null,2,2014-04-05 18:00:00
355,25,9,null,4,null,2,2014-04-05 18:00:00
356,25,8,null,5,null,2,2014-04-05 18:00:00
357,25,7,null,6,null,2,2014-04-05 18:00:00
358,26,14,null,7,null,2,2014-04-12 18:00:00
359,26,6,null,8,null,2,2014-04-12 18:00:00
360,26,5,null,9,null,2,2014-04-12 18:00:00
361,26,4,null,10,null,2,2014-04-12 18:00:00
362,26,pauza,null,11,null,2,2014-04-12 18:00:00
363,26,2,null,12,null,2,2014-04-12 18:00:00
364,26,1,null,13,null,2,2014-04-12 18:00:00
